Molly G. Robinson - What was Saban’s best Alabama team?
…
One might notice I multiplied the defensive z-scores by -1. This is to make positive defensive z-scores a good thing.

Code

zscores %>% 
  arrange(desc(TotalZScore))

# A tibble: 84 × 22
# Groups:   Season [6]
   Rank.x Name        G.x OffRu…¹ OffPa…² OffPl…³ OffTo…⁴ OffYa…⁵ OffYa…⁶ Season
    <dbl> <chr>     <dbl>   <dbl>   <dbl>   <dbl>   <dbl>   <dbl>   <dbl>  <dbl>
 1      6 Florida      14    3105    3305     919    6410    6.97    458.   2009
 2     31 Alabama      13    2788    2797     865    5585    6.46    430.   2011
 3      4 Alabama      13    2385    4656     902    7041    7.81    542.   2020
 4     31 Alabama      14    3185    3052     898    6237    6.95    446.   2012
 5     29 Alabama      14    3509    2708     944    6217    6.59    444.   2017
 6     45 Alabama      15    2999    3407    1088    6406    5.89    427.   2015
 7     43 Alabama      14    3011    2631     947    5642    5.96    403    2009
 8     33 Texas A&M    10    2051    2341     678    4392    6.48    439.   2020
 9     32 Georgia      15    3876    2653     975    6529    6.7     435.   2017
10      3 Texas A&M    13    3147    4114    1025    7261    7.08    558.   2012
# … with 74 more rows, 12 more variables: Rank.y <dbl>, G.y <dbl>,
#   DefRushYards <dbl>, DefPassYards <dbl>, DefPlays <dbl>,
#   DefTotalYards <dbl>, `DefYards/Play` <dbl>, `DefYards/G` <dbl>,
#   TotalOffZScore <dbl[,1]>, TotalDefZScore <dbl[,1]>, TotalZScore <dbl[,1]>,
#   NameYear <chr>, and abbreviated variable names ¹​OffRushYards,
#   ²​OffPassYards, ³​OffPlays, ⁴​OffTotalYards, ⁵​`OffYards/Play`, ⁶​`OffYards/G`
…
