What was Nick Saban's best Alabama team? - Molly Robinson's Blog
…
zscores <- totals %>% 
  filter(Name %in% sec) %>% 
  group_by(Season) %>%
  mutate(
  TotalOffZScore = scale(`OffYards/G`, center=TRUE, scale=TRUE),
  TotalDefZScore = scale(`DefYards/G`, center=TRUE, scale=TRUE) * -1,
  TotalZScore = TotalOffZScore + (TotalDefZScore), 
  NameYear = paste(Name, Season, sep = " "))

One might notice I multiplied the defensive z-scores by -1. This is to make positive defensive z-scores a good thing.

zscores %>% 
  arrange(desc(TotalZScore))

## # A tibble: 84 × 22
## # Groups:   Season [6]
##    Rank.x Name        G.x OffRushYards OffPassYards OffPlays OffTotalYards
##     <dbl> <chr>     <dbl>        <dbl>        <dbl>    <dbl>         <dbl>
##  1      6 Florida      14         3105         3305      919          6410
##  2     31 Alabama      13         2788         2797      865          5585
##  3      4 Alabama      13         2385         4656      902          7041
##  4     31 Alabama      14         3185         3052      898          6237
##  5     29 Alabama      14         3509         2708      944          6217
##  6     45 Alabama      15         2999         3407     1088          6406
##  7     43 Alabama      14         3011         2631      947          5642
##  8     33 Texas A&M    10         2051         2341      678          4392
##  9     32 Georgia      15         3876         2653      975          6529
## 10      3 Texas A&M    13         3147         4114     1025          7261
## # … with 74 more rows, and 15 more variables: OffYards/Play <dbl>,
## #   OffYards/G <dbl>, Season <dbl>, Rank.y <dbl>, G.y <dbl>,
## #   DefRushYards <dbl>, DefPassYards <dbl>, DefPlays <dbl>,
## #   DefTotalYards <dbl>, DefYards/Play <dbl>, DefYards/G <dbl>,
## #   TotalOffZScore <dbl[,1]>, TotalDefZScore <dbl[,1]>, TotalZScore <dbl[,1]>,
## #   NameYear <chr>
…
